[gd_scene load_steps=4 format=3 uid="uid://vkodjw0nu12n"]

[ext_resource type="Texture2D" uid="uid://c2xhr1blcrja7" path="res://Art/Invader_Bullet_1.png" id="1"]
[ext_resource type="Script" path="res://Elements/Bullet.gd" id="2"]

[sub_resource type="RectangleShape2D" id="1"]
size = Vector2(8, 28)

[node name="Invader_Bullet" type="CharacterBody2D" groups=["Invader_Bullets"]]
collision_layer = 4
collision_mask = 0
script = ExtResource("2")
vel = Vector2(0, -0.25)

[node name="Player_Bullet" type="Sprite2D" parent="."]
modulate = Color(1, 0, 0.560784, 1)
scale = Vector2(2, 2)
texture = ExtResource("1")

[node name="CollisionShape2D" type="CollisionShape2D" parent="."]
visible = false
shape = SubResource("1")
