[gd_scene load_steps=4 format=3 uid="uid://bp2q768vpms3m"]

[ext_resource type="Texture2D" uid="uid://cpw0vgbxc0p28" path="res://Art/Invader_Bullet_3.png" id="1"]
[ext_resource type="Script" path="res://Elements/Bullet.gd" id="2"]

[sub_resource type="CircleShape2D" id="1"]
radius = 8.0

[node name="Invader_Bullet2" type="CharacterBody2D" groups=["Invader_Bullets"]]
collision_layer = 4
collision_mask = 0
script = ExtResource("2")
vel = Vector2(0, -0.25)

[node name="Player_Bullet" type="Sprite2D" parent="."]
modulate = Color(0.14902, 0.819608, 1, 1)
scale = Vector2(2, 2)
texture = ExtResource("1")

[node name="CollisionShape2D" type="CollisionShape2D" parent="."]
position = Vector2(0, 6)
shape = SubResource("1")
